‌‌‌‌‍‌‍‌I ‌‌‌‌‍‬‬‍read‌‌‌‌‍﻿‌﻿ ‌‌‌‌‍﻿‌‬between ‌‌‌‌‍‬‍‍‌‌‌‌‍‬‍﻿the‌‌‌‌‍‬‌‍‌‌‌‌‍﻿‌‬ lines, my ‌‌‌‌‍‬‍‌vision'‌‌‌‌‌‬‌‌s ‌‌‌‌‍﻿‍‌‌‌‌‌‍‬‬‌‌‌‌‌‍‬‍‍clear‌‌‌‌‌‬‌‌ and‌‌‌‌‍‍‌‬ keen‌‌‌‌‍‌‍‍
I‌‌‌‌‍‌‌‍ ‌‌‌‌‍‌‍‌see ‌‌‌‌‍‌﻿‍the hidden‌‌‌‌‍‌‍‍ ‌‌‌‌‌‬﻿‌meanings, ‌‌‌‌‌‬‌‌the truths ‌‌‌‌‍‌‬‍that‌‌‌‌‌‬‌‌‌‌‌‌‍‬‌‍ ‌‌‌‌‍‬﻿‍are unseen
‌‌‌‌‌‬‌‌I don'‌‌‌‌‍﻿‌﻿t ‌‌‌‌‍﻿‍‌‌‌‌‌‍‬‬‍‌‌‌‌‍‬﻿‌just‌‌‌‌‍‬﻿‌‌‌‌‌‌‬‌‌‌‌‌‌‍‬﻿﻿‌‌‌‌‍‬﻿‬‌‌‌‌‌‬‌‌ take ‌‌‌‌‍﻿‍‌things ‌‌‌‌‍‬‬‌at ‌‌‌‌‍‬‍‍face value,‌‌‌‌‌‬‌‌‌‌‌‌‍﻿‍‌ ‌‌‌‌‍‬‍‍that‌‌‌‌‍‬‌‍‌‌‌‌‍‬﻿‍‌‌‌‌‌‬﻿‬'s not‌‌‌‌‌‌‬‬ my‌‌‌‌‍‬‍‌‌‌‌‌‍‬‌‍ ‌‌‌‌‍‬﻿‍style
I ‌‌‌‌‍﻿‬﻿‌‌‌‌‍﻿‍‌dig‌‌‌‌‌﻿‌‍‌‌‌‌‍‬﻿‍ ‌‌‌‌‌﻿‌﻿deep and I uncover‌‌‌‌‍‍﻿﻿‌‌‌‌‍﻿‍‌, the ‌‌‌‌‌﻿‌‌hidden‌‌‌‌‍‍﻿﻿ ‌‌‌‌‍‬‬﻿‌‌‌‌‍‬‬‍treasures‌‌‌‌‍‬‌﻿ ‌‌‌‌‍‬‬﻿that‌‌‌‌‍‍﻿﻿‌‌‌‌‍‬‌‬‌‌‌‌‌﻿‍‌‌‌‌‌‍‬‌﻿ ‌‌‌‌‍‬‬﻿‌‌‌‌‍‍﻿﻿are‌‌‌‌‌﻿‍‌ compiled‌‌‌‌‍‬﻿‬
‌‌‌‌‍‬‍‌‌‌‌‌‍‍﻿﻿‌‌‌‌‍﻿‌‬‌‌‌‌‌﻿‌﻿‌‌‌‌‍‬﻿‌‌‌‌‌‌﻿‍‌‌‌‌‌‍﻿‬‌‌‌‌‌‍﻿﻿‍
